CodProc;CodConc;DsProc;idgesto;idTUSS;dsProcedimento;log
285815;0000285815|KTR PKMRSK;CATETER P/CANALIZACAO ENDOVENOSA(PICC)BLENTA 02FR 30CM;481935;70135401;CATETER INTRAVENOSO POLIURETANO 18GX1 1/4pol 32MM SURFLASH SR*FF1832 -  SR*FF1832;9
90395069;90395069|DS 500MKG;DAXAS 500MCG COMP REV ROFLUMILASTE;530395;90265424;DAXAS - 500 MCG COM REV CT BL PVC/PVDC/AL X 30 - TAKEDA PHARMA LTDA.;6
19228359;19228359|KT TGTP PR;KIT TIGHTROPE PARA LUXACAO AC;465788;70762015;TIGHTROPE SINDESMOSE TITANIO -  AR8924DS;5
